Data Wrangling and Analyses with Tidyverse
…
It never changes variable names. If you try to create a
data.frame with column names beginning with numbers or
containing dashes, those characters will be replaced. A tibble will use
what you give it.

It has a humane print() function that won’t try to show
you thousands of rows of data.

Let’s coerce our gapminder data frame into a tibble
using the as_tibble() function. Let’s first do this without
assigning the result:

as_tibble(gapminder)

# A tibble: 1,704 × 6
   country      year      pop continent lifeExp gdpPercap
   <chr>       <int>    <dbl> <chr>       <dbl>     <dbl>
 1 Afghanistan  1952  8425333 Asia         28.8      779.
 2 Afghanistan  1957  9240934 Asia         30.3      821.
 3 Afghanistan  1962 10267083 Asia         32.0      853.
 4 Afghanistan  1967 11537966 Asia         34.0      836.
 5 Afghanistan  1972 13079460 Asia         36.1      740.
 6 Afghanistan  1977 14880372 Asia         38.4      786.
 7 Afghanistan  1982 12881816 Asia         39.9      978.
 8 Afghanistan  1987 13867957 Asia         40.8      852.
 9 Afghanistan  1992 16317921 Asia         41.7      649.
10 Afghanistan  1997 22227415 Asia         41.8      635.
# … with 1,694 more rows
# ℹ Use `print(n = ...)` to see more rows
…
In the above output, we can already gather some information about
gapminder, such as the number of rows and columns, column
names, type of vector in the columns, and the first few entries of each
column.

Select

To select columns of a data frame, use select(). The
first argument to this function is the data frame
(gapminder), and the subsequent arguments are the columns
to keep.

select(gapminder, country, year, gdpPercap)

# A tibble: 1,704 × 3
   country      year gdpPercap
   <chr>       <int>     <dbl>
 1 Afghanistan  1952      779.
 2 Afghanistan  1957      821.
 3 Afghanistan  1962      853.
 4 Afghanistan  1967      836.
 5 Afghanistan  1972      740.
 6 Afghanistan  1977      786.
 7 Afghanistan  1982      978.
 8 Afghanistan  1987      852.
 9 Afghanistan  1992      649.
10 Afghanistan  1997      635.
# … with 1,694 more rows
# ℹ Use `print(n = ...)` to see more rows

To select all columns except certain ones, put a “-” in
front of the variable to exclude it.

select(gapminder, -lifeExp)

# A tibble: 1,704 × 5
   country      year      pop continent gdpPercap
   <chr>       <int>    <dbl> <chr>         <dbl>
 1 Afghanistan  1952  8425333 Asia           779.
 2 Afghanistan  1957  9240934 Asia           821.
 3 Afghanistan  1962 10267083 Asia           853.
 4 Afghanistan  1967 11537966 Asia           836.
 5 Afghanistan  1972 13079460 Asia           740.
 6 Afghanistan  1977 14880372 Asia           786.
 7 Afghanistan  1982 12881816 Asia           978.
 8 Afghanistan  1987 13867957 Asia           852.
 9 Afghanistan  1992 16317921 Asia           649.
10 Afghanistan  1997 22227415 Asia           635.
# … with 1,694 more rows
# ℹ Use `print(n = ...)` to see more rows

dplyr also provides useful functions to select columns
based on their names. For instance, ends_with() allows you
to select columns that ends with specific letters. For instance, if you
wanted to select columns that end with the letter “p”:

select(gapminder, ends_with("p"))

# A tibble: 1,704 × 3
        pop lifeExp gdpPercap
      <dbl>   <dbl>     <dbl>
 1  8425333    28.8      779.
 2  9240934    30.3      821.
 3 10267083    32.0      853.
 4 11537966    34.0      836.
 5 13079460    36.1      740.
 6 14880372    38.4      786.
 7 12881816    39.9      978.
 8 13867957    40.8      852.
 9 16317921    41.7      649.
10 22227415    41.8      635.
# … with 1,694 more rows
# ℹ Use `print(n = ...)` to see more rows

Challenge

Create a table that contains all the columns with the letter “e” and
column “country”, without columns “lifeExp”. Hint: look at the help
function tidyselect::ends_with() we’ve just covered.

Solution

select(gapminder, contains("e"), -lifeExp, country)

# A tibble: 1,704 × 4
    year continent gdpPercap country    
   <int> <chr>         <dbl> <chr>      
 1  1952 Asia           779. Afghanistan
 2  1957 Asia           821. Afghanistan
 3  1962 Asia           853. Afghanistan
 4  1967 Asia           836. Afghanistan
 5  1972 Asia           740. Afghanistan
 6  1977 Asia           786. Afghanistan
 7  1982 Asia           978. Afghanistan
 8  1987 Asia           852. Afghanistan
 9  1992 Asia           649. Afghanistan
10  1997 Asia           635. Afghanistan
# … with 1,694 more rows
# ℹ Use `print(n = ...)` to see more rows
…
filter() will keep all the rows that match the
conditions that are provided. Here are a few examples:

# rows for which the country column contains Vietnam or Indonesia
filter(gapminder, country %in% c('Vietnam', 'Indonesia'))

# A tibble: 24 × 6
   country    year       pop continent lifeExp gdpPercap
   <chr>     <int>     <dbl> <chr>       <dbl>     <dbl>
 1 Indonesia  1952  82052000 Asia         37.5      750.
 2 Indonesia  1957  90124000 Asia         39.9      859.
 3 Indonesia  1962  99028000 Asia         42.5      849.
 4 Indonesia  1967 109343000 Asia         46.0      762.
 5 Indonesia  1972 121282000 Asia         49.2     1111.
 6 Indonesia  1977 136725000 Asia         52.7     1383.
 7 Indonesia  1982 153343000 Asia         56.2     1517.
 8 Indonesia  1987 169276000 Asia         60.1     1748.
 9 Indonesia  1992 184816000 Asia         62.7     2383.
10 Indonesia  1997 199278000 Asia         66.0     3119.
# … with 14 more rows
# ℹ Use `print(n = ...)` to see more rows

# rows with lifeExp greater than or equal to 70
filter(gapminder, lifeExp >= 70)

# A tibble: 494 × 6
   country    year      pop continent lifeExp gdpPercap
   <chr>     <int>    <dbl> <chr>       <dbl>     <dbl>
 1 Albania    1982  2780097 Europe       70.4     3631.
 2 Albania    1987  3075321 Europe       72       3739.
 3 Albania    1992  3326498 Europe       71.6     2497.
 4 Albania    1997  3428038 Europe       73.0     3193.
 5 Albania    2002  3508512 Europe       75.7     4604.
 6 Albania    2007  3600523 Europe       76.4     5937.
 7 Algeria    2002 31287142 Africa       71.0     5288.
 8 Algeria    2007 33333216 Africa       72.3     6223.
 9 Argentina  1987 31620918 Americas     70.8     9140.
10 Argentina  1992 33958947 Americas     71.9     9308.
# … with 484 more rows
# ℹ Use `print(n = ...)` to see more rows
…
Challenge

Select all data for countries in Europe between the years 1990 and
2000

Solution

filter(gapminder, continent == 'Europe' & (year >= 1990 & year <= 2000))

# A tibble: 60 × 6
   country                 year      pop continent lifeExp gdpPercap
   <chr>                  <int>    <dbl> <chr>       <dbl>     <dbl>
 1 Albania                 1992  3326498 Europe       71.6     2497.
 2 Albania                 1997  3428038 Europe       73.0     3193.
 3 Austria                 1992  7914969 Europe       76.0    27042.
 4 Austria                 1997  8069876 Europe       77.5    29096.
 5 Belgium                 1992 10045622 Europe       76.5    25576.
 6 Belgium                 1997 10199787 Europe       77.5    27561.
 7 Bosnia and Herzegovina  1992  4256013 Europe       72.2     2547.
 8 Bosnia and Herzegovina  1997  3607000 Europe       73.2     4766.
 9 Bulgaria                1992  8658506 Europe       71.2     6303.
10 Bulgaria                1997  8066057 Europe       70.3     5970.
# … with 50 more rows
# ℹ Use `print(n = ...)` to see more rows
…
We have a column titled “gdpPercap” and “pop”. We could use these two
columns to compute the “total_gdp” for each country/year observation. By
multiplying the entries per-row.

Let’s add a column (total_gdp) to our
gapminder data frame that shows the total GDP for the
country in the corresponding year.

gapminder %>% mutate(total_gdp = gdpPercap * pop)

# A tibble: 1,704 × 7
   country      year      pop continent lifeExp gdpPercap    total_gdp
   <chr>       <int>    <dbl> <chr>       <dbl>     <dbl>        <dbl>
 1 Afghanistan  1952  8425333 Asia         28.8      779.  6567086330.
 2 Afghanistan  1957  9240934 Asia         30.3      821.  7585448670.
 3 Afghanistan  1962 10267083 Asia         32.0      853.  8758855797.
 4 Afghanistan  1967 11537966 Asia         34.0      836.  9648014150.
 5 Afghanistan  1972 13079460 Asia         36.1      740.  9678553274.
 6 Afghanistan  1977 14880372 Asia         38.4      786. 11697659231.
 7 Afghanistan  1982 12881816 Asia         39.9      978. 12598563401.
 8 Afghanistan  1987 13867957 Asia         40.8      852. 11820990309.
 9 Afghanistan  1992 16317921 Asia         41.7      649. 10595901589.
10 Afghanistan  1997 22227415 Asia         41.8      635. 14121995875.
# … with 1,694 more rows
# ℹ Use `print(n = ...)` to see more rows
…
1

Here the summary function used was n() to find the count
for each group. Since this is a quite a common operation, there is a
simpler method called tally():

gapminder %>%
    group_by(country) %>%
    tally()

# A tibble: 142 × 2
   country         n
   <chr>       <int>
 1 Afghanistan    12
 2 Albania        12
 3 Algeria        12
 4 Angola         12
 5 Argentina      12
 6 Australia      12
 7 Austria        12
 8 Bahrain        12
 9 Bangladesh     12
10 Belgium        12
# … with 132 more rows
# ℹ Use `print(n = ...)` to see more rows

To show that there are many ways to achieve the same results, there
is another way to approach this, which bypasses group_by()
using the function count():

gapminder %>% count(country)

# A tibble: 142 × 2
   country         n
   <chr>       <int>
 1 Afghanistan    12
 2 Albania        12
 3 Algeria        12
 4 Angola         12
 5 Argentina      12
 6 Australia      12
 7 Austria        12
 8 Bahrain        12
 9 Bangladesh     12
10 Belgium        12
# … with 132 more rows
# ℹ Use `print(n = ...)` to see more rows
…
So to view the mean, median, maximum, and minimum
gdpPercap for each country:

gapminder %>%
    group_by(country) %>%
    summarize(
        min_gpc = min(gdpPercap),
        mean_gpc = mean(gdpPercap),
        median_gpc = median(gdpPercap),
        max_gpc = max(gdpPercap))

# A tibble: 142 × 5
   country     min_gpc mean_gpc median_gpc max_gpc
   <chr>         <dbl>    <dbl>      <dbl>   <dbl>
 1 Afghanistan    635.     803.       803.    978.
 2 Albania       1601.    3255.      3253.   5937.
 3 Algeria       2449.    4426.      4854.   6223.
 4 Angola        2277.    3607.      3265.   5523.
 5 Argentina     5911.    8956.      9069.  12779.
 6 Australia    10040.   19981.     18906.  34435.
 7 Austria       6137.   20412.     20673.  36126.
 8 Bahrain       9867.   18078.     18780.  29796.
 9 Bangladesh     630.     818.       704.   1391.
10 Belgium       8343.   19901.     20049.  33693.
# … with 132 more rows
# ℹ Use `print(n = ...)` to see more rows
…
pivot_wider() takes a data frame as the first argument,
and two arguments: the column name that will become the columns and the
column name that will become the cells in the wide data. Let’s create a
wide format table with rows for each country, columns for each year, and
data values being the lifeExp.

gapminder_wide <- gapminder %>%
    select(country, lifeExp, year) %>%
    group_by(country) %>%
    pivot_wider(names_from = year, values_from = lifeExp)
gapminder_wide

# A tibble: 142 × 13
# Groups:   country [142]
   country `1952` `1957` `1962` `1967` `1972` `1977` `1982` `1987` `1992` `1997`
   <chr>    <dbl>  <dbl>  <dbl>  <dbl>  <dbl>  <dbl>  <dbl>  <dbl>  <dbl>  <dbl>
 1 Afghan…   28.8   30.3   32.0   34.0   36.1   38.4   39.9   40.8   41.7   41.8
 2 Albania   55.2   59.3   64.8   66.2   67.7   68.9   70.4   72     71.6   73.0
 3 Algeria   43.1   45.7   48.3   51.4   54.5   58.0   61.4   65.8   67.7   69.2
 4 Angola    30.0   32.0   34     36.0   37.9   39.5   39.9   39.9   40.6   41.0
 5 Argent…   62.5   64.4   65.1   65.6   67.1   68.5   69.9   70.8   71.9   73.3
 6 Austra…   69.1   70.3   70.9   71.1   71.9   73.5   74.7   76.3   77.6   78.8
 7 Austria   66.8   67.5   69.5   70.1   70.6   72.2   73.2   74.9   76.0   77.5
 8 Bahrain   50.9   53.8   56.9   59.9   63.3   65.6   69.1   70.8   72.6   73.9
 9 Bangla…   37.5   39.3   41.2   43.5   45.3   46.9   50.0   52.8   56.0   59.4
10 Belgium   68     69.2   70.2   70.9   71.4   72.8   73.9   75.4   76.5   77.5
# … with 132 more rows, and 2 more variables: `2002` <dbl>, `2007` <dbl>
# ℹ Use `print(n = ...)` to see more rows, and `colnames()` to see all variable names

The opposite operation of pivot_wider() is taken care by
pivot_longer(). We specify the names of the new columns,
and here add -country as this column shouldn’t be affected
by the reshaping:

gapminder_wide %>%
    pivot_longer(-country, names_to = "year", values_to = "lifeExp")

# A tibble: 1,704 × 3
# Groups:   country [142]
   country     year  lifeExp
   <chr>       <chr>   <dbl>
 1 Afghanistan 1952     28.8
 2 Afghanistan 1957     30.3
 3 Afghanistan 1962     32.0
 4 Afghanistan 1967     34.0
 5 Afghanistan 1972     36.1
 6 Afghanistan 1977     38.4
 7 Afghanistan 1982     39.9
 8 Afghanistan 1987     40.8
 9 Afghanistan 1992     41.7
10 Afghanistan 1997     41.8
# … with 1,694 more rows
# ℹ Use `print(n = ...)` to see more rows
…
